Copyright 1986-2021 Xilinx, Inc. All Rights Reserved.
-------------------------------------------------------------------------------------------
| Tool Version : Vivado v.2021.2 (win64) Build 3367213 Tue Oct 19 02:48:09 MDT 2021
| Date         : Sun May 29 11:37:39 2022
| Host         : Isaac-Laptop running 64-bit major release  (build 9200)
| Command      : report_timing_summary -file ../output/route/post_route_timing_summary.rpt
| Design       : fpga_audio_processor_top
| Device       : 7z020-clg484
| Speed File   : -1  PRODUCTION 1.12 2019-11-22
-------------------------------------------------------------------------------------------

Timing Summary Report

------------------------------------------------------------------------------------------------
| Timer Settings
| --------------
------------------------------------------------------------------------------------------------

  Enable Multi Corner Analysis               :  Yes
  Enable Pessimism Removal                   :  Yes
  Pessimism Removal Resolution               :  Nearest Common Node
  Enable Input Delay Default Clock           :  No
  Enable Preset / Clear Arcs                 :  No
  Disable Flight Delays                      :  No
  Ignore I/O Paths                           :  No
  Timing Early Launch at Borrowing Latches   :  No
  Borrow Time for Max Delay Exceptions       :  Yes
  Merge Timing Exceptions                    :  Yes

  Corner  Analyze    Analyze    
  Name    Max Paths  Min Paths  
  ------  ---------  ---------  
  Slow    Yes        Yes        
  Fast    Yes        Yes        


------------------------------------------------------------------------------------------------
| Report Methodology
| ------------------
------------------------------------------------------------------------------------------------

No report available as report_methodology has not been run prior. Run report_methodology on the current design for the summary of methodology violations.



check_timing report

Table of Contents
-----------------
1. checking no_clock (0)
2. checking constant_clock (0)
3. checking pulse_width_clock (0)
4. checking unconstrained_internal_endpoints (0)
5. checking no_input_delay (4)
6. checking no_output_delay (13)
7. checking multiple_clock (0)
8. checking generated_clocks (0)
9. checking loops (0)
10. checking partial_input_delay (0)
11. checking partial_output_delay (0)
12. checking latch_loops (0)

1. checking no_clock (0)
------------------------
 There are 0 register/latch pins with no clock.


2. checking constant_clock (0)
------------------------------
 There are 0 register/latch pins with constant_clock.


3. checking pulse_width_clock (0)
---------------------------------
 There are 0 register/latch pins which need pulse_width check


4. checking unconstrained_internal_endpoints (0)
------------------------------------------------
 There are 0 pins that are not constrained for maximum delay.

 There are 0 pins that are not constrained for maximum delay due to constant clock.


5. checking no_input_delay (4)
------------------------------
 There are 4 input ports with no input delay specified. (HIGH)

 There are 0 input ports with no input delay but user has a false path constraint.


6. checking no_output_delay (13)
--------------------------------
 There are 13 ports with no output delay specified. (HIGH)

 There are 0 ports with no output delay but user has a false path constraint

 There are 0 ports with no output delay but with a timing clock defined on it or propagating through it


7. checking multiple_clock (0)
------------------------------
 There are 0 register/latch pins with multiple clocks.


8. checking generated_clocks (0)
--------------------------------
 There are 0 generated clocks that are not connected to a clock source.


9. checking loops (0)
---------------------
 There are 0 combinational loops in the design.


10. checking partial_input_delay (0)
------------------------------------
 There are 0 input ports with partial input delay specified.


11. checking partial_output_delay (0)
-------------------------------------
 There are 0 ports with partial output delay specified.


12. checking latch_loops (0)
----------------------------
 There are 0 combinational latch loops in the design through latch input



------------------------------------------------------------------------------------------------
| Design Timing Summary
| ---------------------
------------------------------------------------------------------------------------------------

    WNS(ns)      TNS(ns)  TNS Failing Endpoints  TNS Total Endpoints      WHS(ns)      THS(ns)  THS Failing Endpoints  THS Total Endpoints     WPWS(ns)     TPWS(ns)  TPWS Failing Endpoints  TPWS Total Endpoints  
    -------      -------  ---------------------  -------------------      -------      -------  ---------------------  -------------------     --------     --------  ----------------------  --------------------  
      3.060        0.000                      0                 2702        0.020        0.000                      0                 2702        3.000        0.000                       0                   977  


All user specified timing constraints are met.


------------------------------------------------------------------------------------------------
| Clock Summary
| -------------
------------------------------------------------------------------------------------------------

Clock                  Waveform(ns)       Period(ns)      Frequency(MHz)
-----                  ------------       ----------      --------------
i_clock                {0.000 5.000}      10.000          100.000         
  clkfbout_clk_wiz_0   {0.000 5.000}      10.000          100.000         
  o_clock_1_clk_wiz_0  {0.000 5.000}      10.000          100.000         
  o_clock_2_clk_wiz_0  {0.000 11.071}     22.143          45.161          


------------------------------------------------------------------------------------------------
| Intra Clock Table
| -----------------
------------------------------------------------------------------------------------------------

Clock                      WNS(ns)      TNS(ns)  TNS Failing Endpoints  TNS Total Endpoints      WHS(ns)      THS(ns)  THS Failing Endpoints  THS Total Endpoints     WPWS(ns)     TPWS(ns)  TPWS Failing Endpoints  TPWS Total Endpoints  
-----                      -------      -------  ---------------------  -------------------      -------      -------  ---------------------  -------------------     --------     --------  ----------------------  --------------------  
i_clock                                                                                                                                                                  3.000        0.000                       0                     1  
  clkfbout_clk_wiz_0                                                                                                                                                     7.845        0.000                       0                     3  
  o_clock_1_clk_wiz_0        3.060        0.000                      0                 2702        0.020        0.000                      0                 2702        3.750        0.000                       0                   970  
  o_clock_2_clk_wiz_0                                                                                                                                                   19.988        0.000                       0                     3  


------------------------------------------------------------------------------------------------
| Inter Clock Table
| -----------------
------------------------------------------------------------------------------------------------

From Clock    To Clock          WNS(ns)      TNS(ns)  TNS Failing Endpoints  TNS Total Endpoints      WHS(ns)      THS(ns)  THS Failing Endpoints  THS Total Endpoints  
----------    --------          -------      -------  ---------------------  -------------------      -------      -------  ---------------------  -------------------  


------------------------------------------------------------------------------------------------
| Other Path Groups Table
| -----------------------
------------------------------------------------------------------------------------------------

Path Group    From Clock    To Clock          WNS(ns)      TNS(ns)  TNS Failing Endpoints  TNS Total Endpoints      WHS(ns)      THS(ns)  THS Failing Endpoints  THS Total Endpoints  
----------    ----------    --------          -------      -------  ---------------------  -------------------      -------      -------  ---------------------  -------------------  


------------------------------------------------------------------------------------------------
| Timing Details
| --------------
------------------------------------------------------------------------------------------------


---------------------------------------------------------------------------------------------------
From Clock:  i_clock
  To Clock:  i_clock

Setup :           NA  Failing Endpoints,  Worst Slack           NA  ,  Total Violation           NA
Hold  :           NA  Failing Endpoints,  Worst Slack           NA  ,  Total Violation           NA
PW    :            0  Failing Endpoints,  Worst Slack        3.000ns,  Total Violation        0.000ns
---------------------------------------------------------------------------------------------------


Pulse Width Checks
--------------------------------------------------------------------------------------
Clock Name:         i_clock
Waveform(ns):       { 0.000 5.000 }
Period(ns):         10.000
Sources:            { i_clock }

Check Type        Corner  Lib Pin           Reference Pin  Required(ns)  Actual(ns)  Slack(ns)  Location        Pin
Min Period        n/a     PLLE2_ADV/CLKIN1  n/a            1.249         10.000      8.751      PLLE2_ADV_X0Y0  clock_generator_inst/clk_wiz_0_inst/inst/plle2_adv_inst/CLKIN1
Max Period        n/a     PLLE2_ADV/CLKIN1  n/a            52.633        10.000      42.633     PLLE2_ADV_X0Y0  clock_generator_inst/clk_wiz_0_inst/inst/plle2_adv_inst/CLKIN1
Low Pulse Width   Slow    PLLE2_ADV/CLKIN1  n/a            2.000         5.000       3.000      PLLE2_ADV_X0Y0  clock_generator_inst/clk_wiz_0_inst/inst/plle2_adv_inst/CLKIN1
High Pulse Width  Slow    PLLE2_ADV/CLKIN1  n/a            2.000         5.000       3.000      PLLE2_ADV_X0Y0  clock_generator_inst/clk_wiz_0_inst/inst/plle2_adv_inst/CLKIN1



---------------------------------------------------------------------------------------------------
From Clock:  clkfbout_clk_wiz_0
  To Clock:  clkfbout_clk_wiz_0

Setup :           NA  Failing Endpoints,  Worst Slack           NA  ,  Total Violation           NA
Hold  :           NA  Failing Endpoints,  Worst Slack           NA  ,  Total Violation           NA
PW    :            0  Failing Endpoints,  Worst Slack        7.845ns,  Total Violation        0.000ns
---------------------------------------------------------------------------------------------------


Pulse Width Checks
--------------------------------------------------------------------------------------
Clock Name:         clkfbout_clk_wiz_0
Waveform(ns):       { 0.000 5.000 }
Period(ns):         10.000
Sources:            { clock_generator_inst/clk_wiz_0_inst/inst/plle2_adv_inst/CLKFBOUT }

Check Type  Corner  Lib Pin            Reference Pin  Required(ns)  Actual(ns)  Slack(ns)  Location        Pin
Min Period  n/a     BUFG/I             n/a            2.155         10.000      7.845      BUFGCTRL_X0Y2   clock_generator_inst/clk_wiz_0_inst/inst/clkf_buf/I
Max Period  n/a     PLLE2_ADV/CLKFBIN  n/a            52.633        10.000      42.633     PLLE2_ADV_X0Y0  clock_generator_inst/clk_wiz_0_inst/inst/plle2_adv_inst/CLKFBIN



---------------------------------------------------------------------------------------------------
From Clock:  o_clock_1_clk_wiz_0
  To Clock:  o_clock_1_clk_wiz_0

Setup :            0  Failing Endpoints,  Worst Slack        3.060ns,  Total Violation        0.000ns
Hold  :            0  Failing Endpoints,  Worst Slack        0.020ns,  Total Violation        0.000ns
PW    :            0  Failing Endpoints,  Worst Slack        3.750ns,  Total Violation        0.000ns
---------------------------------------------------------------------------------------------------


Max Delay Paths
--------------------------------------------------------------------------------------
Slack (MET) :             3.060ns  (required time - arrival time)
  Source:                 audio_processor_inst/fir_filter_fixed_inst/fir_filter_fixed_fsm_left_inst/mult_data_in_a_reg[23]/C
                            (rising edge-triggered cell FDRE clocked by o_clock_1_clk_wiz_0  {rise@0.000ns fall@5.000ns period=10.000ns})
  Destination:            audio_processor_inst/fir_filter_fixed_inst/fir_filter_fixed_fsm_left_inst/fixed_point_multiplier_inst/U0/i_mult/gDSP.gDSP_only.iDSP/use_prim.appDSP48[0].bppDSP48[1].use_dsp.use_dsp48e1.iDSP48E1/PCIN[0]
                            (rising edge-triggered cell DSP48E1 clocked by o_clock_1_clk_wiz_0  {rise@0.000ns fall@5.000ns period=10.000ns})
  Path Group:             o_clock_1_clk_wiz_0
  Path Type:              Setup (Max at Slow Process Corner)
  Requirement:            10.000ns  (o_clock_1_clk_wiz_0 rise@10.000ns - o_clock_1_clk_wiz_0 rise@0.000ns)
  Data Path Delay:        5.429ns  (logic 4.630ns (85.291%)  route 0.799ns (14.709%))
  Logic Levels:           1  (DSP48E1=1)
  Clock Path Skew:        -0.049ns (DCD - SCD + CPR)
    Destination Clock Delay (DCD):    -1.895ns = ( 8.105 - 10.000 ) 
    Source Clock Delay      (SCD):    -2.259ns
    Clock Pessimism Removal (CPR):    -0.413ns
  Clock Uncertainty:      0.062ns  ((TSJ^2 + DJ^2)^1/2) / 2 + PE
    Total System Jitter     (TSJ):    0.071ns
    Discrete Jitter          (DJ):    0.103ns
    Phase Error              (PE):    0.000ns

    Location             Delay type                Incr(ns)  Path(ns)    Netlist Resource(s)
  -------------------------------------------------------------------    -------------------
                         (clock o_clock_1_clk_wiz_0 rise edge)
                                                      0.000     0.000 r  
    Y9                                                0.000     0.000 r  i_clock (IN)
                         net (fo=0)                   0.000     0.000    clock_generator_inst/clk_wiz_0_inst/inst/i_clock
    Y9                   IBUF (Prop_ibuf_I_O)         1.490     1.490 r  clock_generator_inst/clk_wiz_0_inst/inst/clkin1_ibufg/O
                         net (fo=1, routed)           1.306     2.796    clock_generator_inst/clk_wiz_0_inst/inst/i_clock_clk_wiz_0
    PLLE2_ADV_X0Y0       PLLE2_ADV (Prop_plle2_adv_CLKIN1_CLKOUT0)
                                                     -8.866    -6.070 r  clock_generator_inst/clk_wiz_0_inst/inst/plle2_adv_inst/CLKOUT0
                         net (fo=1, routed)           1.849    -4.221    clock_generator_inst/clk_wiz_0_inst/inst/o_clock_1_clk_wiz_0
    BUFGCTRL_X0Y1        BUFG (Prop_bufg_I_O)         0.101    -4.120 r  clock_generator_inst/clk_wiz_0_inst/inst/clkout1_buf/O
                         net (fo=970, routed)         1.861    -2.259    audio_processor_inst/fir_filter_fixed_inst/fir_filter_fixed_fsm_left_inst/o_clock_100MHz
    SLICE_X107Y22        FDRE                                         r  audio_processor_inst/fir_filter_fixed_inst/fir_filter_fixed_fsm_left_inst/mult_data_in_a_reg[23]/C
  -------------------------------------------------------------------    -------------------
    SLICE_X107Y22        FDRE (Prop_fdre_C_Q)         0.419    -1.840 r  audio_processor_inst/fir_filter_fixed_inst/fir_filter_fixed_fsm_left_inst/mult_data_in_a_reg[23]/Q
                         net (fo=2, routed)           0.797    -1.043    audio_processor_inst/fir_filter_fixed_inst/fir_filter_fixed_fsm_left_inst/fixed_point_multiplier_inst/U0/i_mult/gDSP.gDSP_only.iDSP/A[23]
    DSP48_X4Y8           DSP48E1 (Prop_dsp48e1_A[24]_PCOUT[0])
                                                      4.211     3.168 r  audio_processor_inst/fir_filter_fixed_inst/fir_filter_fixed_fsm_left_inst/fixed_point_multiplier_inst/U0/i_mult/gDSP.gDSP_only.iDSP/use_prim.appDSP48[0].bppDSP48[0].use_dsp.use_dsp48e1.iDSP48E1/PCOUT[0]
                         net (fo=1, routed)           0.002     3.170    audio_processor_inst/fir_filter_fixed_inst/fir_filter_fixed_fsm_left_inst/fixed_point_multiplier_inst/U0/i_mult/gDSP.gDSP_only.iDSP/pcout[0,0][0]
    DSP48_X4Y9           DSP48E1                                      r  audio_processor_inst/fir_filter_fixed_inst/fir_filter_fixed_fsm_left_inst/fixed_point_multiplier_inst/U0/i_mult/gDSP.gDSP_only.iDSP/use_prim.appDSP48[0].bppDSP48[1].use_dsp.use_dsp48e1.iDSP48E1/PCIN[0]
  -------------------------------------------------------------------    -------------------

                         (clock o_clock_1_clk_wiz_0 rise edge)
                                                     10.000    10.000 r  
    Y9                                                0.000    10.000 r  i_clock (IN)
                         net (fo=0)                   0.000    10.000    clock_generator_inst/clk_wiz_0_inst/inst/i_clock
    Y9                   IBUF (Prop_ibuf_I_O)         1.420    11.420 r  clock_generator_inst/clk_wiz_0_inst/inst/clkin1_ibufg/O
                         net (fo=1, routed)           1.181    12.601    clock_generator_inst/clk_wiz_0_inst/inst/i_clock_clk_wiz_0
    PLLE2_ADV_X0Y0       PLLE2_ADV (Prop_plle2_adv_CLKIN1_CLKOUT0)
                                                     -7.970     4.631 r  clock_generator_inst/clk_wiz_0_inst/inst/plle2_adv_inst/CLKOUT0
                         net (fo=1, routed)           1.686     6.317    clock_generator_inst/clk_wiz_0_inst/inst/o_clock_1_clk_wiz_0
    BUFGCTRL_X0Y1        BUFG (Prop_bufg_I_O)         0.091     6.408 r  clock_generator_inst/clk_wiz_0_inst/inst/clkout1_buf/O
                         net (fo=970, routed)         1.697     8.105    audio_processor_inst/fir_filter_fixed_inst/fir_filter_fixed_fsm_left_inst/fixed_point_multiplier_inst/U0/i_mult/gDSP.gDSP_only.iDSP/CLK
    DSP48_X4Y9           DSP48E1                                      r  audio_processor_inst/fir_filter_fixed_inst/fir_filter_fixed_fsm_left_inst/fixed_point_multiplier_inst/U0/i_mult/gDSP.gDSP_only.iDSP/use_prim.appDSP48[0].bppDSP48[1].use_dsp.use_dsp48e1.iDSP48E1/CLK
                         clock pessimism             -0.413     7.692    
                         clock uncertainty           -0.062     7.630    
    DSP48_X4Y9           DSP48E1 (Setup_dsp48e1_CLK_PCIN[0])
                                                     -1.400     6.230    audio_processor_inst/fir_filter_fixed_inst/fir_filter_fixed_fsm_left_inst/fixed_point_multiplier_inst/U0/i_mult/gDSP.gDSP_only.iDSP/use_prim.appDSP48[0].bppDSP48[1].use_dsp.use_dsp48e1.iDSP48E1
  -------------------------------------------------------------------
                         required time                          6.230    
                         arrival time                          -3.170    
  -------------------------------------------------------------------
                         slack                                  3.060    





Min Delay Paths
--------------------------------------------------------------------------------------
Slack (MET) :             0.020ns  (arrival time - required time)
  Source:                 audio_processor_inst/fir_filter_fixed_inst/fir_filter_fixed_fsm_right_inst/fir_filter_fixed_sample_dram_wr_addr_reg[4]/C
                            (rising edge-triggered cell FDRE clocked by o_clock_1_clk_wiz_0  {rise@0.000ns fall@5.000ns period=10.000ns})
  Destination:            audio_processor_inst/fir_filter_fixed_inst/fir_filter_fixed_fsm_right_inst/fir_filter_fixed_sample_dram_inst/U0/synth_options.dist_mem_inst/gen_sdp_ram.sdpram_inst/ram_reg_0_31_12_17/RAMA/WADR4
                            (rising edge-triggered cell RAMD32 clocked by o_clock_1_clk_wiz_0  {rise@0.000ns fall@5.000ns period=10.000ns})
  Path Group:             o_clock_1_clk_wiz_0
  Path Type:              Hold (Min at Fast Process Corner)
  Requirement:            0.000ns  (o_clock_1_clk_wiz_0 rise@0.000ns - o_clock_1_clk_wiz_0 rise@0.000ns)
  Data Path Delay:        0.233ns  (logic 0.141ns (60.437%)  route 0.092ns (39.563%))
  Logic Levels:           0  
  Clock Path Skew:        0.013ns (DCD - SCD - CPR)
    Destination Clock Delay (DCD):    -0.295ns
    Source Clock Delay      (SCD):    -0.525ns
    Clock Pessimism Removal (CPR):    0.217ns

    Location             Delay type                Incr(ns)  Path(ns)    Netlist Resource(s)
  -------------------------------------------------------------------    -------------------
                         (clock o_clock_1_clk_wiz_0 rise edge)
                                                      0.000     0.000 r  
    Y9                                                0.000     0.000 r  i_clock (IN)
                         net (fo=0)                   0.000     0.000    clock_generator_inst/clk_wiz_0_inst/inst/i_clock
    Y9                   IBUF (Prop_ibuf_I_O)         0.258     0.258 r  clock_generator_inst/clk_wiz_0_inst/inst/clkin1_ibufg/O
                         net (fo=1, routed)           0.440     0.698    clock_generator_inst/clk_wiz_0_inst/inst/i_clock_clk_wiz_0
    PLLE2_ADV_X0Y0       PLLE2_ADV (Prop_plle2_adv_CLKIN1_CLKOUT0)
                                                     -2.384    -1.685 r  clock_generator_inst/clk_wiz_0_inst/inst/plle2_adv_inst/CLKOUT0
                         net (fo=1, routed)           0.533    -1.152    clock_generator_inst/clk_wiz_0_inst/inst/o_clock_1_clk_wiz_0
    BUFGCTRL_X0Y1        BUFG (Prop_bufg_I_O)         0.026    -1.126 r  clock_generator_inst/clk_wiz_0_inst/inst/clkout1_buf/O
                         net (fo=970, routed)         0.602    -0.525    audio_processor_inst/fir_filter_fixed_inst/fir_filter_fixed_fsm_right_inst/o_clock_100MHz
    SLICE_X99Y28         FDRE                                         r  audio_processor_inst/fir_filter_fixed_inst/fir_filter_fixed_fsm_right_inst/fir_filter_fixed_sample_dram_wr_addr_reg[4]/C
  -------------------------------------------------------------------    -------------------
    SLICE_X99Y28         FDRE (Prop_fdre_C_Q)         0.141    -0.384 r  audio_processor_inst/fir_filter_fixed_inst/fir_filter_fixed_fsm_right_inst/fir_filter_fixed_sample_dram_wr_addr_reg[4]/Q
                         net (fo=33, routed)          0.092    -0.291    audio_processor_inst/fir_filter_fixed_inst/fir_filter_fixed_fsm_right_inst/fir_filter_fixed_sample_dram_inst/U0/synth_options.dist_mem_inst/gen_sdp_ram.sdpram_inst/ram_reg_0_31_12_17/ADDRD4
    SLICE_X98Y28         RAMD32                                       r  audio_processor_inst/fir_filter_fixed_inst/fir_filter_fixed_fsm_right_inst/fir_filter_fixed_sample_dram_inst/U0/synth_options.dist_mem_inst/gen_sdp_ram.sdpram_inst/ram_reg_0_31_12_17/RAMA/WADR4
  -------------------------------------------------------------------    -------------------

                         (clock o_clock_1_clk_wiz_0 rise edge)
                                                      0.000     0.000 r  
    Y9                                                0.000     0.000 r  i_clock (IN)
                         net (fo=0)                   0.000     0.000    clock_generator_inst/clk_wiz_0_inst/inst/i_clock
    Y9                   IBUF (Prop_ibuf_I_O)         0.446     0.446 r  clock_generator_inst/clk_wiz_0_inst/inst/clkin1_ibufg/O
                         net (fo=1, routed)           0.481     0.927    clock_generator_inst/clk_wiz_0_inst/inst/i_clock_clk_wiz_0
    PLLE2_ADV_X0Y0       PLLE2_ADV (Prop_plle2_adv_CLKIN1_CLKOUT0)
                                                     -2.700    -1.773 r  clock_generator_inst/clk_wiz_0_inst/inst/plle2_adv_inst/CLKOUT0
                         net (fo=1, routed)           0.580    -1.193    clock_generator_inst/clk_wiz_0_inst/inst/o_clock_1_clk_wiz_0
    BUFGCTRL_X0Y1        BUFG (Prop_bufg_I_O)         0.029    -1.164 r  clock_generator_inst/clk_wiz_0_inst/inst/clkout1_buf/O
                         net (fo=970, routed)         0.869    -0.295    audio_processor_inst/fir_filter_fixed_inst/fir_filter_fixed_fsm_right_inst/fir_filter_fixed_sample_dram_inst/U0/synth_options.dist_mem_inst/gen_sdp_ram.sdpram_inst/ram_reg_0_31_12_17/WCLK
    SLICE_X98Y28         RAMD32                                       r  audio_processor_inst/fir_filter_fixed_inst/fir_filter_fixed_fsm_right_inst/fir_filter_fixed_sample_dram_inst/U0/synth_options.dist_mem_inst/gen_sdp_ram.sdpram_inst/ram_reg_0_31_12_17/RAMA/CLK
                         clock pessimism             -0.217    -0.512    
    SLICE_X98Y28         RAMD32 (Hold_ramd32_CLK_WADR4)
                                                      0.200    -0.312    audio_processor_inst/fir_filter_fixed_inst/fir_filter_fixed_fsm_right_inst/fir_filter_fixed_sample_dram_inst/U0/synth_options.dist_mem_inst/gen_sdp_ram.sdpram_inst/ram_reg_0_31_12_17/RAMA
  -------------------------------------------------------------------
                         required time                          0.312    
                         arrival time                          -0.291    
  -------------------------------------------------------------------
                         slack                                  0.020    





Pulse Width Checks
--------------------------------------------------------------------------------------
Clock Name:         o_clock_1_clk_wiz_0
Waveform(ns):       { 0.000 5.000 }
Period(ns):         10.000
Sources:            { clock_generator_inst/clk_wiz_0_inst/inst/plle2_adv_inst/CLKOUT0 }

Check Type        Corner  Lib Pin            Reference Pin  Required(ns)  Actual(ns)  Slack(ns)  Location        Pin
Min Period        n/a     BUFG/I             n/a            2.155         10.000      7.845      BUFGCTRL_X0Y1   clock_generator_inst/clk_wiz_0_inst/inst/clkout1_buf/I
Max Period        n/a     PLLE2_ADV/CLKOUT0  n/a            160.000       10.000      150.000    PLLE2_ADV_X0Y0  clock_generator_inst/clk_wiz_0_inst/inst/plle2_adv_inst/CLKOUT0
Low Pulse Width   Slow    RAMD32/CLK         n/a            1.250         5.000       3.750      SLICE_X108Y23   audio_processor_inst/fir_filter_fixed_inst/fir_filter_fixed_fsm_left_inst/fir_filter_fixed_sample_dram_inst/U0/synth_options.dist_mem_inst/gen_sdp_ram.sdpram_inst/ram_reg_0_31_0_5/RAMA/CLK
High Pulse Width  Slow    RAMD32/CLK         n/a            1.250         5.000       3.750      SLICE_X108Y23   audio_processor_inst/fir_filter_fixed_inst/fir_filter_fixed_fsm_left_inst/fir_filter_fixed_sample_dram_inst/U0/synth_options.dist_mem_inst/gen_sdp_ram.sdpram_inst/ram_reg_0_31_0_5/RAMA/CLK



---------------------------------------------------------------------------------------------------
From Clock:  o_clock_2_clk_wiz_0
  To Clock:  o_clock_2_clk_wiz_0

Setup :           NA  Failing Endpoints,  Worst Slack           NA  ,  Total Violation           NA
Hold  :           NA  Failing Endpoints,  Worst Slack           NA  ,  Total Violation           NA
PW    :            0  Failing Endpoints,  Worst Slack       19.988ns,  Total Violation        0.000ns
---------------------------------------------------------------------------------------------------


Pulse Width Checks
--------------------------------------------------------------------------------------
Clock Name:         o_clock_2_clk_wiz_0
Waveform(ns):       { 0.000 11.071 }
Period(ns):         22.143
Sources:            { clock_generator_inst/clk_wiz_0_inst/inst/plle2_adv_inst/CLKOUT1 }

Check Type  Corner  Lib Pin            Reference Pin  Required(ns)  Actual(ns)  Slack(ns)  Location        Pin
Min Period  n/a     BUFG/I             n/a            2.155         22.143      19.988     BUFGCTRL_X0Y0   clock_generator_inst/clk_wiz_0_inst/inst/clkout2_buf/I
Max Period  n/a     PLLE2_ADV/CLKOUT1  n/a            160.000       22.143      137.857    PLLE2_ADV_X0Y0  clock_generator_inst/clk_wiz_0_inst/inst/plle2_adv_inst/CLKOUT1



