# ==============================================================
# Vitis HLS - High-Level Synthesis from C, C++ and OpenCL v2020.2 (64-bit)
# Copyright 1986-2020 Xilinx, Inc. All Rights Reserved.
# ==============================================================

Family       : zynq
Device       : xc7z020
Package      : -clg484
Speed Grade  : -1
Clock Period : 10.000 ns
